{
  "type": "service_account",
  "project_id": "proven-script-303701",
  "private_key_id": "8406b0f52643901020c4138d713834bc2d7344ec",
  "private_key": "-----BEGIN PRIVATE KEY-----\nMIIEvQIBADANBgkqhkiG9w0BAQEFAASCBKcwggSjAgEAAoIBAQDe+9PgEoWz611P\nR6kRaev60jGN2h2jDjkNB26R5Im3zjeqRIKW3Avj8u8p8fwxf8jrlINGJNrx1BJ7\nHTNsIE7t7vVF7IRHA77s4sosnhvSXphqAl2UqLQuhy55oVI1EtSDzsaCu8szxZy8\nWQJ9Fr1bKVKnxr71vnfMl6RYmSKRfTUZDnd0p/X8FhkrG8fzBKetXH6nRkaRf/Xz\nB9t+aZ/V11y+0sPNFPglYMqAHz4CYIbbefAKn8wu+5suukMXgtad7+wPMLFCteXM\ns4t3L3OOIMVlnOQReOz08lVTqpTMqrl6Ii/AkQBiNzrV4/YDa4wwQNMKUGIROJ06\nJ9kPt0xrAgMBAAECggEAEj+y1dY+OfzLrKbVN9ce2G6mXpEYttT9p0rR6j+1Y6UN\nWjJ0K4uDr5qcpyamOJjYJSuI2M9AWeU8w/WeVT2JqCBT026pXrR4RiPDXwZriXpz\nZ82cwgNSh7JJg+vHcg+B8+2SwnVDCpAkJSf1s64OPi0yFggGbc8yN7y7VwLlWNmq\nyGgmi4Oat3QmwnExNazoS4AM7ZsMIM87vT3rObnPBONjGx8nUsHsYx/yif8DFfoW\n5yWt8IvDIyBRk6RtNEJBDdT104B5pcBFR9aNS/d3LR6PVvEz0CPaYB9RXLXAonRz\nDSVFxeaZUYySU6B7fQL1fKwCoR3ac5XL3XZCi9SSNQKBgQDxStbR1KBYY/0dcRaX\nz7asoop+wm8oHf5b+lAqvryQXna5zD7uwNBjeBTGi9sN7Bg0lAs1bOvieykxwuMO\nk2Sbz5q6uYxgTXBlPnsXxwOvUifAgT43wVogPtVnVPoVIkBfuGDsQcT5ndhRz+Jt\nAWG6jvs6SRjheJhnmvuOWHN8PwKBgQDsk0w+qeD9sh3jqo7bqX3zYtFoCIslPFZC\noHUJeNG0lDX9cXquXfIxHBwuoKQS1D1ZZ0O4Vo0x8ng9drkSKl0fefgirugP1/H/\nOdFldrcho0wGCZjkPHiyy471GvbJ4EA6g1Ucfdk2m/8TBDOM/mO3681sBpHBrdR5\n6T56AxQU1QKBgQClMozSyhUhjwtrTdKfC0nQ9dOGJ4481BQiWsTqDv5AhTwZxplL\nktzZTQxERtoptPt5e+YUpMb2n0W72OblQso91qvjrUdLY5lQ568Uv19peADZTmMP\nfyQ6MWqfvVEeiP2zyyMofXrjP0sr7/zgjnKfbGbaJ9OOAqetPzF86lfetwKBgCCP\ndWL6hpjkNvDqvJbHESq6Yw/qfRw23bh11SXklxg/fd7QC46MJ5VSxR41xd9BjuAL\nMmrgnrZNJPdwq7AwXHjElL5RTGdB1XDHSGaqnDHpA8Gg+IYRPJt/IMHjYCwQzUZA\nZSpyt76oYccAQQgayya5MaC4lr8Nab0NuSeZ3N2xAoGAQsiKbqPSg+gAZY+78UY2\nUzI1bXEGmpl69Eh5S2Lb3/KAivuXMKlcf8MHzQje7eeCyUU4sHvfzX/vlgow7Cu9\n/1j1u2soTev6d8WzVPLy2hc87mEVV9x2YZ4dp+9OKdIajfnBSMDi20ZLXfrtTKYV\nIA3hFwIuRwLfJNhAcAPH6fw=\n-----END PRIVATE KEY-----\n",
  "client_email": "service-664-acc@proven-script-303701.iam.gserviceaccount.com",
  "client_id": "103171790905421979015",
  "auth_uri": "https://accounts.google.com/o/oauth2/auth",
  "token_uri": "https://oauth2.googleapis.com/token",
  "auth_provider_x509_cert_url": "https://www.googleapis.com/oauth2/v1/certs",
  "client_x509_cert_url": "https://www.googleapis.com/robot/v1/metadata/x509/service-664-acc%40proven-script-303701.iam.gserviceaccount.com"
}
